solid Created by Gmsh
facet normal 0.603594 0 0.797292
  outer loop
    vertex -0.202255 -1 -0.466667
    vertex -0.143548 -1 -0.511111
    vertex -0.143548 -0.6 -0.511111
  endloop
endfacet
facet normal 0.603594 0 0.797292
  outer loop
    vertex -0.202255 -1 -0.466667
    vertex -0.143548 -0.6 -0.511111
    vertex -0.202255 -0.6 -0.466667
  endloop
endfacet
facet normal 0.603594 0 0.797292
  outer loop
    vertex -0.202255 -0.6 -0.466667
    vertex -0.143548 -0.6 -0.511111
    vertex -0.143548 -0.2 -0.511111
  endloop
endfacet
facet normal 0.603594 0 0.797292
  outer loop
    vertex -0.202255 -0.6 -0.466667
    vertex -0.143548 -0.2 -0.511111
    vertex -0.202255 -0.2 -0.466667
  endloop
endfacet
facet normal 0.603594 0 0.797292
  outer loop
    vertex -0.202255 -0.2 -0.466667
    vertex -0.143548 -0.2 -0.511111
    vertex -0.143548 0.2 -0.511111
  endloop
endfacet
facet normal 0.603594 0 0.797292
  outer loop
    vertex -0.202255 -0.2 -0.466667
    vertex -0.143548 0.2 -0.511111
    vertex -0.202255 0.2 -0.466667
  endloop
endfacet
facet normal 0.603594 0 0.797292
  outer loop
    vertex -0.202255 0.2 -0.466667
    vertex -0.143548 0.2 -0.511111
    vertex -0.143548 0.6 -0.511111
  endloop
endfacet
facet normal 0.603594 0 0.797292
  outer loop
    vertex -0.202255 0.2 -0.466667
    vertex -0.143548 0.6 -0.511111
    vertex -0.202255 0.6 -0.466667
  endloop
endfacet
facet normal 0.603594 0 0.797292
  outer loop
    vertex -0.202255 0.6 -0.466667
    vertex -0.143548 0.6 -0.511111
    vertex -0.143548 1 -0.511111
  endloop
endfacet
facet normal 0.603594 0 0.797292
  outer loop
    vertex -0.202255 0.6 -0.466667
    vertex -0.143548 1 -0.511111
    vertex -0.202255 1 -0.466667
  endloop
endfacet
facet normal 0.603594 0 0.797292
  outer loop
    vertex -0.143548 -1 -0.511111
    vertex -0.0848414 -1 -0.555556
    vertex -0.0848414 -0.6 -0.555556
  endloop
endfacet
facet normal 0.603594 0 0.797292
  outer loop
    vertex -0.143548 -1 -0.511111
    vertex -0.0848414 -0.6 -0.555556
    vertex -0.143548 -0.6 -0.511111
  endloop
endfacet
facet normal 0.603594 0 0.797292
  outer loop
    vertex -0.143548 -0.6 -0.511111
    vertex -0.0848414 -0.6 -0.555556
    vertex -0.0848414 -0.2 -0.555556
  endloop
endfacet
facet normal 0.603594 0 0.797292
  outer loop
    vertex -0.143548 -0.6 -0.511111
    vertex -0.0848414 -0.2 -0.555556
    vertex -0.143548 -0.2 -0.511111
  endloop
endfacet
facet normal 0.603594 0 0.797292
  outer loop
    vertex -0.143548 -0.2 -0.511111
    vertex -0.0848414 -0.2 -0.555556
    vertex -0.0848414 0.2 -0.555556
  endloop
endfacet
facet normal 0.603594 0 0.797292
  outer loop
    vertex -0.143548 -0.2 -0.511111
    vertex -0.0848414 0.2 -0.555556
    vertex -0.143548 0.2 -0.511111
  endloop
endfacet
facet normal 0.603594 0 0.797292
  outer loop
    vertex -0.143548 0.2 -0.511111
    vertex -0.0848414 0.2 -0.555556
    vertex -0.0848414 0.6 -0.555556
  endloop
endfacet
facet normal 0.603594 0 0.797292
  outer loop
    vertex -0.143548 0.2 -0.511111
    vertex -0.0848414 0.6 -0.555556
    vertex -0.143548 0.6 -0.511111
  endloop
endfacet
facet normal 0.603594 0 0.797292
  outer loop
    vertex -0.143548 0.6 -0.511111
    vertex -0.0848414 0.6 -0.555556
    vertex -0.0848414 1 -0.555556
  endloop
endfacet
facet normal 0.603594 0 0.797292
  outer loop
    vertex -0.143548 0.6 -0.511111
    vertex -0.0848414 1 -0.555556
    vertex -0.143548 1 -0.511111
  endloop
endfacet
facet normal 0.603594 0 0.797292
  outer loop
    vertex -0.0848414 -1 -0.555556
    vertex -0.0261344 -1 -0.6
    vertex -0.0261344 -0.6 -0.6
  endloop
endfacet
facet normal 0.603594 0 0.797292
  outer loop
    vertex -0.0848414 -1 -0.555556
    vertex -0.0261344 -0.6 -0.6
    vertex -0.0848414 -0.6 -0.555556
  endloop
endfacet
facet normal 0.603594 0 0.797292
  outer loop
    vertex -0.0848414 -0.6 -0.555556
    vertex -0.0261344 -0.6 -0.6
    vertex -0.0261344 -0.2 -0.6
  endloop
endfacet
facet normal 0.603594 0 0.797292
  outer loop
    vertex -0.0848414 -0.6 -0.555556
    vertex -0.0261344 -0.2 -0.6
    vertex -0.0848414 -0.2 -0.555556
  endloop
endfacet
facet normal 0.603594 0 0.797292
  outer loop
    vertex -0.0848414 -0.2 -0.555556
    vertex -0.0261344 -0.2 -0.6
    vertex -0.0261344 0.2 -0.6
  endloop
endfacet
facet normal 0.603594 0 0.797292
  outer loop
    vertex -0.0848414 -0.2 -0.555556
    vertex -0.0261344 0.2 -0.6
    vertex -0.0848414 0.2 -0.555556
  endloop
endfacet
facet normal 0.603594 0 0.797292
  outer loop
    vertex -0.0848414 0.2 -0.555556
    vertex -0.0261344 0.2 -0.6
    vertex -0.0261344 0.6 -0.6
  endloop
endfacet
facet normal 0.603594 0 0.797292
  outer loop
    vertex -0.0848414 0.2 -0.555556
    vertex -0.0261344 0.6 -0.6
    vertex -0.0848414 0.6 -0.555556
  endloop
endfacet
facet normal 0.603594 0 0.797292
  outer loop
    vertex -0.0848414 0.6 -0.555556
    vertex -0.0261344 0.6 -0.6
    vertex -0.0261344 1 -0.6
  endloop
endfacet
facet normal 0.603594 0 0.797292
  outer loop
    vertex -0.0848414 0.6 -0.555556
    vertex -0.0261344 1 -0.6
    vertex -0.0848414 1 -0.555556
  endloop
endfacet
facet normal 0.56757 0 0.823325
  outer loop
    vertex -0.0261344 -1 -0.6
    vertex 0.0383373 -1 -0.644444
    vertex 0.0383373 -0.6 -0.644444
  endloop
endfacet
facet normal 0.56757 0 0.823325
  outer loop
    vertex -0.0261344 -1 -0.6
    vertex 0.0383373 -0.6 -0.644444
    vertex -0.0261344 -0.6 -0.6
  endloop
endfacet
facet normal 0.56757 0 0.823325
  outer loop
    vertex -0.0261344 -0.6 -0.6
    vertex 0.0383373 -0.6 -0.644444
    vertex 0.0383373 -0.2 -0.644444
  endloop
endfacet
facet normal 0.56757 0 0.823325
  outer loop
    vertex -0.0261344 -0.6 -0.6
    vertex 0.0383373 -0.2 -0.644444
    vertex -0.0261344 -0.2 -0.6
  endloop
endfacet
facet normal 0.56757 0 0.823325
  outer loop
    vertex -0.0261344 -0.2 -0.6
    vertex 0.0383373 -0.2 -0.644444
    vertex 0.0383373 0.2 -0.644444
  endloop
endfacet
facet normal 0.56757 0 0.823325
  outer loop
    vertex -0.0261344 -0.2 -0.6
    vertex 0.0383373 0.2 -0.644444
    vertex -0.0261344 0.2 -0.6
  endloop
endfacet
facet normal 0.56757 0 0.823325
  outer loop
    vertex -0.0261344 0.2 -0.6
    vertex 0.0383373 0.2 -0.644444
    vertex 0.0383373 0.6 -0.644444
  endloop
endfacet
facet normal 0.56757 0 0.823325
  outer loop
    vertex -0.0261344 0.2 -0.6
    vertex 0.0383373 0.6 -0.644444
    vertex -0.0261344 0.6 -0.6
  endloop
endfacet
facet normal 0.56757 0 0.823325
  outer loop
    vertex -0.0261344 0.6 -0.6
    vertex 0.0383373 0.6 -0.644444
    vertex 0.0383373 1 -0.644444
  endloop
endfacet
facet normal 0.56757 0 0.823325
  outer loop
    vertex -0.0261344 0.6 -0.6
    vertex 0.0383373 1 -0.644444
    vertex -0.0261344 1 -0.6
  endloop
endfacet
facet normal 0.56757 0 0.823325
  outer loop
    vertex 0.0383373 -1 -0.644444
    vertex 0.102809 -1 -0.688889
    vertex 0.102809 -0.6 -0.688889
  endloop
endfacet
facet normal 0.56757 0 0.823325
  outer loop
    vertex 0.0383373 -1 -0.644444
    vertex 0.102809 -0.6 -0.688889
    vertex 0.0383373 -0.6 -0.644444
  endloop
endfacet
facet normal 0.56757 0 0.823325
  outer loop
    vertex 0.0383373 -0.6 -0.644444
    vertex 0.102809 -0.6 -0.688889
    vertex 0.102809 -0.2 -0.688889
  endloop
endfacet
facet normal 0.56757 0 0.823325
  outer loop
    vertex 0.0383373 -0.6 -0.644444
    vertex 0.102809 -0.2 -0.688889
    vertex 0.0383373 -0.2 -0.644444
  endloop
endfacet
facet normal 0.56757 0 0.823325
  outer loop
    vertex 0.0383373 -0.2 -0.644444
    vertex 0.102809 -0.2 -0.688889
    vertex 0.102809 0.2 -0.688889
  endloop
endfacet
facet normal 0.56757 0 0.823325
  outer loop
    vertex 0.0383373 -0.2 -0.644444
    vertex 0.102809 0.2 -0.688889
    vertex 0.0383373 0.2 -0.644444
  endloop
endfacet
facet normal 0.56757 0 0.823325
  outer loop
    vertex 0.0383373 0.2 -0.644444
    vertex 0.102809 0.2 -0.688889
    vertex 0.102809 0.6 -0.688889
  endloop
endfacet
facet normal 0.56757 0 0.823325
  outer loop
    vertex 0.0383373 0.2 -0.644444
    vertex 0.102809 0.6 -0.688889
    vertex 0.0383373 0.6 -0.644444
  endloop
endfacet
facet normal 0.56757 0 0.823325
  outer loop
    vertex 0.0383373 0.6 -0.644444
    vertex 0.102809 0.6 -0.688889
    vertex 0.102809 1 -0.688889
  endloop
endfacet
facet normal 0.56757 0 0.823325
  outer loop
    vertex 0.0383373 0.6 -0.644444
    vertex 0.102809 1 -0.688889
    vertex 0.0383373 1 -0.644444
  endloop
endfacet
facet normal 0.56757 0 0.823325
  outer loop
    vertex 0.102809 -1 -0.688889
    vertex 0.167281 -1 -0.733333
    vertex 0.167281 -0.6 -0.733333
  endloop
endfacet
facet normal 0.56757 0 0.823325
  outer loop
    vertex 0.102809 -1 -0.688889
    vertex 0.167281 -0.6 -0.733333
    vertex 0.102809 -0.6 -0.688889
  endloop
endfacet
facet normal 0.56757 0 0.823325
  outer loop
    vertex 0.102809 -0.6 -0.688889
    vertex 0.167281 -0.6 -0.733333
    vertex 0.167281 -0.2 -0.733333
  endloop
endfacet
facet normal 0.56757 0 0.823325
  outer loop
    vertex 0.102809 -0.6 -0.688889
    vertex 0.167281 -0.2 -0.733333
    vertex 0.102809 -0.2 -0.688889
  endloop
endfacet
facet normal 0.56757 0 0.823325
  outer loop
    vertex 0.102809 -0.2 -0.688889
    vertex 0.167281 -0.2 -0.733333
    vertex 0.167281 0.2 -0.733333
  endloop
endfacet
facet normal 0.56757 0 0.823325
  outer loop
    vertex 0.102809 -0.2 -0.688889
    vertex 0.167281 0.2 -0.733333
    vertex 0.102809 0.2 -0.688889
  endloop
endfacet
facet normal 0.56757 0 0.823325
  outer loop
    vertex 0.102809 0.2 -0.688889
    vertex 0.167281 0.2 -0.733333
    vertex 0.167281 0.6 -0.733333
  endloop
endfacet
facet normal 0.56757 0 0.823325
  outer loop
    vertex 0.102809 0.2 -0.688889
    vertex 0.167281 0.6 -0.733333
    vertex 0.102809 0.6 -0.688889
  endloop
endfacet
facet normal 0.56757 0 0.823325
  outer loop
    vertex 0.102809 0.6 -0.688889
    vertex 0.167281 0.6 -0.733333
    vertex 0.167281 1 -0.733333
  endloop
endfacet
facet normal 0.56757 0 0.823325
  outer loop
    vertex 0.102809 0.6 -0.688889
    vertex 0.167281 1 -0.733333
    vertex 0.102809 1 -0.688889
  endloop
endfacet
facet normal 0.849753 0 0.527181
  outer loop
    vertex 0.167281 -1 -0.733333
    vertex 0.20864 -1 -0.8
    vertex 0.20864 -0.6 -0.8
  endloop
endfacet
facet normal 0.849753 0 0.527181
  outer loop
    vertex 0.167281 -1 -0.733333
    vertex 0.20864 -0.6 -0.8
    vertex 0.167281 -0.6 -0.733333
  endloop
endfacet
facet normal 0.849753 0 0.527181
  outer loop
    vertex 0.167281 -0.6 -0.733333
    vertex 0.20864 -0.6 -0.8
    vertex 0.20864 -0.2 -0.8
  endloop
endfacet
facet normal 0.849753 0 0.527181
  outer loop
    vertex 0.167281 -0.6 -0.733333
    vertex 0.20864 -0.2 -0.8
    vertex 0.167281 -0.2 -0.733333
  endloop
endfacet
facet normal 0.849753 0 0.527181
  outer loop
    vertex 0.167281 -0.2 -0.733333
    vertex 0.20864 -0.2 -0.8
    vertex 0.20864 0.2 -0.8
  endloop
endfacet
facet normal 0.849753 0 0.527181
  outer loop
    vertex 0.167281 -0.2 -0.733333
    vertex 0.20864 0.2 -0.8
    vertex 0.167281 0.2 -0.733333
  endloop
endfacet
facet normal 0.849753 0 0.527181
  outer loop
    vertex 0.167281 0.2 -0.733333
    vertex 0.20864 0.2 -0.8
    vertex 0.20864 0.6 -0.8
  endloop
endfacet
facet normal 0.849753 0 0.527181
  outer loop
    vertex 0.167281 0.2 -0.733333
    vertex 0.20864 0.6 -0.8
    vertex 0.167281 0.6 -0.733333
  endloop
endfacet
facet normal 0.849753 0 0.527181
  outer loop
    vertex 0.167281 0.6 -0.733333
    vertex 0.20864 0.6 -0.8
    vertex 0.20864 1 -0.8
  endloop
endfacet
facet normal 0.849753 0 0.527181
  outer loop
    vertex 0.167281 0.6 -0.733333
    vertex 0.20864 1 -0.8
    vertex 0.167281 1 -0.733333
  endloop
endfacet
facet normal 0.849753 0 0.527181
  outer loop
    vertex 0.20864 -1 -0.8
    vertex 0.25 -1 -0.866667
    vertex 0.25 -0.6 -0.866667
  endloop
endfacet
facet normal 0.849753 0 0.527181
  outer loop
    vertex 0.20864 -1 -0.8
    vertex 0.25 -0.6 -0.866667
    vertex 0.20864 -0.6 -0.8
  endloop
endfacet
facet normal 0.849753 0 0.527181
  outer loop
    vertex 0.20864 -0.6 -0.8
    vertex 0.25 -0.6 -0.866667
    vertex 0.25 -0.2 -0.866667
  endloop
endfacet
facet normal 0.849753 0 0.527181
  outer loop
    vertex 0.20864 -0.6 -0.8
    vertex 0.25 -0.2 -0.866667
    vertex 0.20864 -0.2 -0.8
  endloop
endfacet
facet normal 0.849753 0 0.527181
  outer loop
    vertex 0.20864 -0.2 -0.8
    vertex 0.25 -0.2 -0.866667
    vertex 0.25 0.2 -0.866667
  endloop
endfacet
facet normal 0.849753 0 0.527181
  outer loop
    vertex 0.20864 -0.2 -0.8
    vertex 0.25 0.2 -0.866667
    vertex 0.20864 0.2 -0.8
  endloop
endfacet
facet normal 0.849753 0 0.527181
  outer loop
    vertex 0.20864 0.2 -0.8
    vertex 0.25 0.2 -0.866667
    vertex 0.25 0.6 -0.866667
  endloop
endfacet
facet normal 0.849753 0 0.527181
  outer loop
    vertex 0.20864 0.2 -0.8
    vertex 0.25 0.6 -0.866667
    vertex 0.20864 0.6 -0.8
  endloop
endfacet
facet normal 0.849753 0 0.527181
  outer loop
    vertex 0.20864 0.6 -0.8
    vertex 0.25 0.6 -0.866667
    vertex 0.25 1 -0.866667
  endloop
endfacet
facet normal 0.849753 0 0.527181
  outer loop
    vertex 0.20864 0.6 -0.8
    vertex 0.25 1 -0.866667
    vertex 0.20864 1 -0.8
  endloop
endfacet
facet normal 0.849764 0 -0.527163
  outer loop
    vertex 0.25 -1 -0.866667
    vertex 0.208642 -1 -0.933333
    vertex 0.208642 -0.6 -0.933333
  endloop
endfacet
facet normal 0.849764 0 -0.527163
  outer loop
    vertex 0.25 -1 -0.866667
    vertex 0.208642 -0.6 -0.933333
    vertex 0.25 -0.6 -0.866667
  endloop
endfacet
facet normal 0.849764 0 -0.527163
  outer loop
    vertex 0.25 -0.6 -0.866667
    vertex 0.208642 -0.6 -0.933333
    vertex 0.208642 -0.2 -0.933333
  endloop
endfacet
facet normal 0.849764 0 -0.527163
  outer loop
    vertex 0.25 -0.6 -0.866667
    vertex 0.208642 -0.2 -0.933333
    vertex 0.25 -0.2 -0.866667
  endloop
endfacet
facet normal 0.849764 0 -0.527163
  outer loop
    vertex 0.25 -0.2 -0.866667
    vertex 0.208642 -0.2 -0.933333
    vertex 0.208642 0.2 -0.933333
  endloop
endfacet
facet normal 0.849764 0 -0.527163
  outer loop
    vertex 0.25 -0.2 -0.866667
    vertex 0.208642 0.2 -0.933333
    vertex 0.25 0.2 -0.866667
  endloop
endfacet
facet normal 0.849764 0 -0.527163
  outer loop
    vertex 0.25 0.2 -0.866667
    vertex 0.208642 0.2 -0.933333
    vertex 0.208642 0.6 -0.933333
  endloop
endfacet
facet normal 0.849764 0 -0.527163
  outer loop
    vertex 0.25 0.2 -0.866667
    vertex 0.208642 0.6 -0.933333
    vertex 0.25 0.6 -0.866667
  endloop
endfacet
facet normal 0.849764 0 -0.527163
  outer loop
    vertex 0.25 0.6 -0.866667
    vertex 0.208642 0.6 -0.933333
    vertex 0.208642 1 -0.933333
  endloop
endfacet
facet normal 0.849764 0 -0.527163
  outer loop
    vertex 0.25 0.6 -0.866667
    vertex 0.208642 1 -0.933333
    vertex 0.25 1 -0.866667
  endloop
endfacet
facet normal 0.849764 0 -0.527163
  outer loop
    vertex 0.208642 -1 -0.933333
    vertex 0.167285 -1 -1
    vertex 0.167285 -0.6 -1
  endloop
endfacet
facet normal 0.849764 0 -0.527163
  outer loop
    vertex 0.208642 -1 -0.933333
    vertex 0.167285 -0.6 -1
    vertex 0.208642 -0.6 -0.933333
  endloop
endfacet
facet normal 0.849764 0 -0.527163
  outer loop
    vertex 0.208642 -0.6 -0.933333
    vertex 0.167285 -0.6 -1
    vertex 0.167285 -0.2 -1
  endloop
endfacet
facet normal 0.849764 0 -0.527163
  outer loop
    vertex 0.208642 -0.6 -0.933333
    vertex 0.167285 -0.2 -1
    vertex 0.208642 -0.2 -0.933333
  endloop
endfacet
facet normal 0.849764 0 -0.527163
  outer loop
    vertex 0.208642 -0.2 -0.933333
    vertex 0.167285 -0.2 -1
    vertex 0.167285 0.2 -1
  endloop
endfacet
facet normal 0.849764 0 -0.527163
  outer loop
    vertex 0.208642 -0.2 -0.933333
    vertex 0.167285 0.2 -1
    vertex 0.208642 0.2 -0.933333
  endloop
endfacet
facet normal 0.849764 0 -0.527163
  outer loop
    vertex 0.208642 0.2 -0.933333
    vertex 0.167285 0.2 -1
    vertex 0.167285 0.6 -1
  endloop
endfacet
facet normal 0.849764 0 -0.527163
  outer loop
    vertex 0.208642 0.2 -0.933333
    vertex 0.167285 0.6 -1
    vertex 0.208642 0.6 -0.933333
  endloop
endfacet
facet normal 0.849764 0 -0.527163
  outer loop
    vertex 0.208642 0.6 -0.933333
    vertex 0.167285 0.6 -1
    vertex 0.167285 1 -1
  endloop
endfacet
facet normal 0.849764 0 -0.527163
  outer loop
    vertex 0.208642 0.6 -0.933333
    vertex 0.167285 1 -1
    vertex 0.208642 1 -0.933333
  endloop
endfacet
facet normal 0.953221 0 0.302274
  outer loop
    vertex -0.244536 -1 -0.333333
    vertex -0.223396 -1 -0.4
    vertex -0.223396 -0.6 -0.4
  endloop
endfacet
facet normal 0.953221 0 0.302274
  outer loop
    vertex -0.244536 -1 -0.333333
    vertex -0.223396 -0.6 -0.4
    vertex -0.244536 -0.6 -0.333333
  endloop
endfacet
facet normal 0.953221 0 0.302274
  outer loop
    vertex -0.244536 -0.6 -0.333333
    vertex -0.223396 -0.6 -0.4
    vertex -0.223396 -0.2 -0.4
  endloop
endfacet
facet normal 0.953221 0 0.302274
  outer loop
    vertex -0.244536 -0.6 -0.333333
    vertex -0.223396 -0.2 -0.4
    vertex -0.244536 -0.2 -0.333333
  endloop
endfacet
facet normal 0.953221 0 0.302274
  outer loop
    vertex -0.244536 -0.2 -0.333333
    vertex -0.223396 -0.2 -0.4
    vertex -0.223396 0.2 -0.4
  endloop
endfacet
facet normal 0.953221 0 0.302274
  outer loop
    vertex -0.244536 -0.2 -0.333333
    vertex -0.223396 0.2 -0.4
    vertex -0.244536 0.2 -0.333333
  endloop
endfacet
facet normal 0.953221 0 0.302274
  outer loop
    vertex -0.244536 0.2 -0.333333
    vertex -0.223396 0.2 -0.4
    vertex -0.223396 0.6 -0.4
  endloop
endfacet
facet normal 0.953221 0 0.302274
  outer loop
    vertex -0.244536 0.2 -0.333333
    vertex -0.223396 0.6 -0.4
    vertex -0.244536 0.6 -0.333333
  endloop
endfacet
facet normal 0.953221 0 0.302274
  outer loop
    vertex -0.244536 0.6 -0.333333
    vertex -0.223396 0.6 -0.4
    vertex -0.223396 1 -0.4
  endloop
endfacet
facet normal 0.953221 0 0.302274
  outer loop
    vertex -0.244536 0.6 -0.333333
    vertex -0.223396 1 -0.4
    vertex -0.244536 1 -0.333333
  endloop
endfacet
facet normal 0.953221 0 0.302274
  outer loop
    vertex -0.223396 -1 -0.4
    vertex -0.202255 -1 -0.466667
    vertex -0.202255 -0.6 -0.466667
  endloop
endfacet
facet normal 0.953221 0 0.302274
  outer loop
    vertex -0.223396 -1 -0.4
    vertex -0.202255 -0.6 -0.466667
    vertex -0.223396 -0.6 -0.4
  endloop
endfacet
facet normal 0.953221 0 0.302274
  outer loop
    vertex -0.223396 -0.6 -0.4
    vertex -0.202255 -0.6 -0.466667
    vertex -0.202255 -0.2 -0.466667
  endloop
endfacet
facet normal 0.953221 0 0.302274
  outer loop
    vertex -0.223396 -0.6 -0.4
    vertex -0.202255 -0.2 -0.466667
    vertex -0.223396 -0.2 -0.4
  endloop
endfacet
facet normal 0.953221 0 0.302274
  outer loop
    vertex -0.223396 -0.2 -0.4
    vertex -0.202255 -0.2 -0.466667
    vertex -0.202255 0.2 -0.466667
  endloop
endfacet
facet normal 0.953221 0 0.302274
  outer loop
    vertex -0.223396 -0.2 -0.4
    vertex -0.202255 0.2 -0.466667
    vertex -0.223396 0.2 -0.4
  endloop
endfacet
facet normal 0.953221 0 0.302274
  outer loop
    vertex -0.223396 0.2 -0.4
    vertex -0.202255 0.2 -0.466667
    vertex -0.202255 0.6 -0.466667
  endloop
endfacet
facet normal 0.953221 0 0.302274
  outer loop
    vertex -0.223396 0.2 -0.4
    vertex -0.202255 0.6 -0.466667
    vertex -0.223396 0.6 -0.4
  endloop
endfacet
facet normal 0.953221 0 0.302274
  outer loop
    vertex -0.223396 0.6 -0.4
    vertex -0.202255 0.6 -0.466667
    vertex -0.202255 1 -0.466667
  endloop
endfacet
facet normal 0.953221 0 0.302274
  outer loop
    vertex -0.223396 0.6 -0.4
    vertex -0.202255 1 -0.466667
    vertex -0.223396 1 -0.4
  endloop
endfacet
facet normal 0.744576 0 -0.667538
  outer loop
    vertex -0.124998 -1 -0.2
    vertex -0.184767 -1 -0.266667
    vertex -0.184767 -0.6 -0.266667
  endloop
endfacet
facet normal 0.744576 0 -0.667538
  outer loop
    vertex -0.124998 -1 -0.2
    vertex -0.184767 -0.6 -0.266667
    vertex -0.124998 -0.6 -0.2
  endloop
endfacet
facet normal 0.744576 0 -0.667538
  outer loop
    vertex -0.124998 -0.6 -0.2
    vertex -0.184767 -0.6 -0.266667
    vertex -0.184767 -0.2 -0.266667
  endloop
endfacet
facet normal 0.744576 0 -0.667538
  outer loop
    vertex -0.124998 -0.6 -0.2
    vertex -0.184767 -0.2 -0.266667
    vertex -0.124998 -0.2 -0.2
  endloop
endfacet
facet normal 0.744576 0 -0.667538
  outer loop
    vertex -0.124998 -0.2 -0.2
    vertex -0.184767 -0.2 -0.266667
    vertex -0.184767 0.2 -0.266667
  endloop
endfacet
facet normal 0.744576 0 -0.667538
  outer loop
    vertex -0.124998 -0.2 -0.2
    vertex -0.184767 0.2 -0.266667
    vertex -0.124998 0.2 -0.2
  endloop
endfacet
facet normal 0.744576 0 -0.667538
  outer loop
    vertex -0.124998 0.2 -0.2
    vertex -0.184767 0.2 -0.266667
    vertex -0.184767 0.6 -0.266667
  endloop
endfacet
facet normal 0.744576 0 -0.667538
  outer loop
    vertex -0.124998 0.2 -0.2
    vertex -0.184767 0.6 -0.266667
    vertex -0.124998 0.6 -0.2
  endloop
endfacet
facet normal 0.744576 0 -0.667538
  outer loop
    vertex -0.124998 0.6 -0.2
    vertex -0.184767 0.6 -0.266667
    vertex -0.184767 1 -0.266667
  endloop
endfacet
facet normal 0.744576 0 -0.667538
  outer loop
    vertex -0.124998 0.6 -0.2
    vertex -0.184767 1 -0.266667
    vertex -0.124998 1 -0.2
  endloop
endfacet
facet normal 0.744576 0 -0.667538
  outer loop
    vertex -0.184767 -1 -0.266667
    vertex -0.244536 -1 -0.333333
    vertex -0.244536 -0.6 -0.333333
  endloop
endfacet
facet normal 0.744576 0 -0.667538
  outer loop
    vertex -0.184767 -1 -0.266667
    vertex -0.244536 -0.6 -0.333333
    vertex -0.184767 -0.6 -0.266667
  endloop
endfacet
facet normal 0.744576 0 -0.667538
  outer loop
    vertex -0.184767 -0.6 -0.266667
    vertex -0.244536 -0.6 -0.333333
    vertex -0.244536 -0.2 -0.333333
  endloop
endfacet
facet normal 0.744576 0 -0.667538
  outer loop
    vertex -0.184767 -0.6 -0.266667
    vertex -0.244536 -0.2 -0.333333
    vertex -0.184767 -0.2 -0.266667
  endloop
endfacet
facet normal 0.744576 0 -0.667538
  outer loop
    vertex -0.184767 -0.2 -0.266667
    vertex -0.244536 -0.2 -0.333333
    vertex -0.244536 0.2 -0.333333
  endloop
endfacet
facet normal 0.744576 0 -0.667538
  outer loop
    vertex -0.184767 -0.2 -0.266667
    vertex -0.244536 0.2 -0.333333
    vertex -0.184767 0.2 -0.266667
  endloop
endfacet
facet normal 0.744576 0 -0.667538
  outer loop
    vertex -0.184767 0.2 -0.266667
    vertex -0.244536 0.2 -0.333333
    vertex -0.244536 0.6 -0.333333
  endloop
endfacet
facet normal 0.744576 0 -0.667538
  outer loop
    vertex -0.184767 0.2 -0.266667
    vertex -0.244536 0.6 -0.333333
    vertex -0.184767 0.6 -0.266667
  endloop
endfacet
facet normal 0.744576 0 -0.667538
  outer loop
    vertex -0.184767 0.6 -0.266667
    vertex -0.244536 0.6 -0.333333
    vertex -0.244536 1 -0.333333
  endloop
endfacet
facet normal 0.744576 0 -0.667538
  outer loop
    vertex -0.184767 0.6 -0.266667
    vertex -0.244536 1 -0.333333
    vertex -0.184767 1 -0.266667
  endloop
endfacet
facet normal 0.550398 0 -0.834902
  outer loop
    vertex 0.0772558 -1 -0.0666667
    vertex 0.00983769 -1 -0.111111
    vertex 0.00983769 -0.6 -0.111111
  endloop
endfacet
facet normal 0.550398 0 -0.834902
  outer loop
    vertex 0.0772558 -1 -0.0666667
    vertex 0.00983769 -0.6 -0.111111
    vertex 0.0772558 -0.6 -0.0666667
  endloop
endfacet
facet normal 0.550398 0 -0.834902
  outer loop
    vertex 0.0772558 -0.6 -0.0666667
    vertex 0.00983769 -0.6 -0.111111
    vertex 0.00983769 -0.2 -0.111111
  endloop
endfacet
facet normal 0.550398 0 -0.834902
  outer loop
    vertex 0.0772558 -0.6 -0.0666667
    vertex 0.00983769 -0.2 -0.111111
    vertex 0.0772558 -0.2 -0.0666667
  endloop
endfacet
facet normal 0.550398 0 -0.834902
  outer loop
    vertex 0.0772558 -0.2 -0.0666667
    vertex 0.00983769 -0.2 -0.111111
    vertex 0.00983769 0.2 -0.111111
  endloop
endfacet
facet normal 0.550398 0 -0.834902
  outer loop
    vertex 0.0772558 -0.2 -0.0666667
    vertex 0.00983769 0.2 -0.111111
    vertex 0.0772558 0.2 -0.0666667
  endloop
endfacet
facet normal 0.550398 0 -0.834902
  outer loop
    vertex 0.0772558 0.2 -0.0666667
    vertex 0.00983769 0.2 -0.111111
    vertex 0.00983769 0.6 -0.111111
  endloop
endfacet
facet normal 0.550398 0 -0.834902
  outer loop
    vertex 0.0772558 0.2 -0.0666667
    vertex 0.00983769 0.6 -0.111111
    vertex 0.0772558 0.6 -0.0666667
  endloop
endfacet
facet normal 0.550398 0 -0.834902
  outer loop
    vertex 0.0772558 0.6 -0.0666667
    vertex 0.00983769 0.6 -0.111111
    vertex 0.00983769 1 -0.111111
  endloop
endfacet
facet normal 0.550398 0 -0.834902
  outer loop
    vertex 0.0772558 0.6 -0.0666667
    vertex 0.00983769 1 -0.111111
    vertex 0.0772558 1 -0.0666667
  endloop
endfacet
facet normal 0.550398 0 -0.834902
  outer loop
    vertex 0.00983769 -1 -0.111111
    vertex -0.0575804 -1 -0.155556
    vertex -0.0575804 -0.6 -0.155556
  endloop
endfacet
facet normal 0.550398 0 -0.834902
  outer loop
    vertex 0.00983769 -1 -0.111111
    vertex -0.0575804 -0.6 -0.155556
    vertex 0.00983769 -0.6 -0.111111
  endloop
endfacet
facet normal 0.550398 0 -0.834902
  outer loop
    vertex 0.00983769 -0.6 -0.111111
    vertex -0.0575804 -0.6 -0.155556
    vertex -0.0575804 -0.2 -0.155556
  endloop
endfacet
facet normal 0.550398 0 -0.834902
  outer loop
    vertex 0.00983769 -0.6 -0.111111
    vertex -0.0575804 -0.2 -0.155556
    vertex 0.00983769 -0.2 -0.111111
  endloop
endfacet
facet normal 0.550398 0 -0.834902
  outer loop
    vertex 0.00983769 -0.2 -0.111111
    vertex -0.0575804 -0.2 -0.155556
    vertex -0.0575804 0.2 -0.155556
  endloop
endfacet
facet normal 0.550398 0 -0.834902
  outer loop
    vertex 0.00983769 -0.2 -0.111111
    vertex -0.0575804 0.2 -0.155556
    vertex 0.00983769 0.2 -0.111111
  endloop
endfacet
facet normal 0.550398 0 -0.834902
  outer loop
    vertex 0.00983769 0.2 -0.111111
    vertex -0.0575804 0.2 -0.155556
    vertex -0.0575804 0.6 -0.155556
  endloop
endfacet
facet normal 0.550398 0 -0.834902
  outer loop
    vertex 0.00983769 0.2 -0.111111
    vertex -0.0575804 0.6 -0.155556
    vertex 0.00983769 0.6 -0.111111
  endloop
endfacet
facet normal 0.550398 0 -0.834902
  outer loop
    vertex 0.00983769 0.6 -0.111111
    vertex -0.0575804 0.6 -0.155556
    vertex -0.0575804 1 -0.155556
  endloop
endfacet
facet normal 0.550398 0 -0.834902
  outer loop
    vertex 0.00983769 0.6 -0.111111
    vertex -0.0575804 1 -0.155556
    vertex 0.00983769 1 -0.111111
  endloop
endfacet
facet normal 0.550398 0 -0.834902
  outer loop
    vertex -0.0575804 -1 -0.155556
    vertex -0.124998 -1 -0.2
    vertex -0.124998 -0.6 -0.2
  endloop
endfacet
facet normal 0.550398 0 -0.834902
  outer loop
    vertex -0.0575804 -1 -0.155556
    vertex -0.124998 -0.6 -0.2
    vertex -0.0575804 -0.6 -0.155556
  endloop
endfacet
facet normal 0.550398 0 -0.834902
  outer loop
    vertex -0.0575804 -0.6 -0.155556
    vertex -0.124998 -0.6 -0.2
    vertex -0.124998 -0.2 -0.2
  endloop
endfacet
facet normal 0.550398 0 -0.834902
  outer loop
    vertex -0.0575804 -0.6 -0.155556
    vertex -0.124998 -0.2 -0.2
    vertex -0.0575804 -0.2 -0.155556
  endloop
endfacet
facet normal 0.550398 0 -0.834902
  outer loop
    vertex -0.0575804 -0.2 -0.155556
    vertex -0.124998 -0.2 -0.2
    vertex -0.124998 0.2 -0.2
  endloop
endfacet
facet normal 0.550398 0 -0.834902
  outer loop
    vertex -0.0575804 -0.2 -0.155556
    vertex -0.124998 0.2 -0.2
    vertex -0.0575804 0.2 -0.155556
  endloop
endfacet
facet normal 0.550398 0 -0.834902
  outer loop
    vertex -0.0575804 0.2 -0.155556
    vertex -0.124998 0.2 -0.2
    vertex -0.124998 0.6 -0.2
  endloop
endfacet
facet normal 0.550398 0 -0.834902
  outer loop
    vertex -0.0575804 0.2 -0.155556
    vertex -0.124998 0.6 -0.2
    vertex -0.0575804 0.6 -0.155556
  endloop
endfacet
facet normal 0.550398 0 -0.834902
  outer loop
    vertex -0.0575804 0.6 -0.155556
    vertex -0.124998 0.6 -0.2
    vertex -0.124998 1 -0.2
  endloop
endfacet
facet normal 0.550398 0 -0.834902
  outer loop
    vertex -0.0575804 0.6 -0.155556
    vertex -0.124998 1 -0.2
    vertex -0.0575804 1 -0.155556
  endloop
endfacet
facet normal 0.661572 0 -0.749881
  outer loop
    vertex 0.228387 -1 0.0666667
    vertex 0.17801 -1 0.0222222
    vertex 0.17801 -0.6 0.0222222
  endloop
endfacet
facet normal 0.661572 0 -0.749881
  outer loop
    vertex 0.228387 -1 0.0666667
    vertex 0.17801 -0.6 0.0222222
    vertex 0.228387 -0.6 0.0666667
  endloop
endfacet
facet normal 0.661572 0 -0.749881
  outer loop
    vertex 0.228387 -0.6 0.0666667
    vertex 0.17801 -0.6 0.0222222
    vertex 0.17801 -0.2 0.0222222
  endloop
endfacet
facet normal 0.661572 0 -0.749881
  outer loop
    vertex 0.228387 -0.6 0.0666667
    vertex 0.17801 -0.2 0.0222222
    vertex 0.228387 -0.2 0.0666667
  endloop
endfacet
facet normal 0.661572 0 -0.749881
  outer loop
    vertex 0.228387 -0.2 0.0666667
    vertex 0.17801 -0.2 0.0222222
    vertex 0.17801 0.2 0.0222222
  endloop
endfacet
facet normal 0.661572 0 -0.749881
  outer loop
    vertex 0.228387 -0.2 0.0666667
    vertex 0.17801 0.2 0.0222222
    vertex 0.228387 0.2 0.0666667
  endloop
endfacet
facet normal 0.661572 0 -0.749881
  outer loop
    vertex 0.228387 0.2 0.0666667
    vertex 0.17801 0.2 0.0222222
    vertex 0.17801 0.6 0.0222222
  endloop
endfacet
facet normal 0.661572 0 -0.749881
  outer loop
    vertex 0.228387 0.2 0.0666667
    vertex 0.17801 0.6 0.0222222
    vertex 0.228387 0.6 0.0666667
  endloop
endfacet
facet normal 0.661572 0 -0.749881
  outer loop
    vertex 0.228387 0.6 0.0666667
    vertex 0.17801 0.6 0.0222222
    vertex 0.17801 1 0.0222222
  endloop
endfacet
facet normal 0.661572 0 -0.749881
  outer loop
    vertex 0.228387 0.6 0.0666667
    vertex 0.17801 1 0.0222222
    vertex 0.228387 1 0.0666667
  endloop
endfacet
facet normal 0.661572 0 -0.749881
  outer loop
    vertex 0.17801 -1 0.0222222
    vertex 0.127633 -1 -0.0222222
    vertex 0.127633 -0.6 -0.0222222
  endloop
endfacet
facet normal 0.661572 0 -0.749881
  outer loop
    vertex 0.17801 -1 0.0222222
    vertex 0.127633 -0.6 -0.0222222
    vertex 0.17801 -0.6 0.0222222
  endloop
endfacet
facet normal 0.661572 0 -0.749881
  outer loop
    vertex 0.17801 -0.6 0.0222222
    vertex 0.127633 -0.6 -0.0222222
    vertex 0.127633 -0.2 -0.0222222
  endloop
endfacet
facet normal 0.661572 0 -0.749881
  outer loop
    vertex 0.17801 -0.6 0.0222222
    vertex 0.127633 -0.2 -0.0222222
    vertex 0.17801 -0.2 0.0222222
  endloop
endfacet
facet normal 0.661572 0 -0.749881
  outer loop
    vertex 0.17801 -0.2 0.0222222
    vertex 0.127633 -0.2 -0.0222222
    vertex 0.127633 0.2 -0.0222222
  endloop
endfacet
facet normal 0.661572 0 -0.749881
  outer loop
    vertex 0.17801 -0.2 0.0222222
    vertex 0.127633 0.2 -0.0222222
    vertex 0.17801 0.2 0.0222222
  endloop
endfacet
facet normal 0.661572 0 -0.749881
  outer loop
    vertex 0.17801 0.2 0.0222222
    vertex 0.127633 0.2 -0.0222222
    vertex 0.127633 0.6 -0.0222222
  endloop
endfacet
facet normal 0.661572 0 -0.749881
  outer loop
    vertex 0.17801 0.2 0.0222222
    vertex 0.127633 0.6 -0.0222222
    vertex 0.17801 0.6 0.0222222
  endloop
endfacet
facet normal 0.661572 0 -0.749881
  outer loop
    vertex 0.17801 0.6 0.0222222
    vertex 0.127633 0.6 -0.0222222
    vertex 0.127633 1 -0.0222222
  endloop
endfacet
facet normal 0.661572 0 -0.749881
  outer loop
    vertex 0.17801 0.6 0.0222222
    vertex 0.127633 1 -0.0222222
    vertex 0.17801 1 0.0222222
  endloop
endfacet
facet normal 0.661572 0 -0.749881
  outer loop
    vertex 0.127633 -1 -0.0222222
    vertex 0.0772558 -1 -0.0666667
    vertex 0.0772558 -0.6 -0.0666667
  endloop
endfacet
facet normal 0.661572 0 -0.749881
  outer loop
    vertex 0.127633 -1 -0.0222222
    vertex 0.0772558 -0.6 -0.0666667
    vertex 0.127633 -0.6 -0.0222222
  endloop
endfacet
facet normal 0.661572 0 -0.749881
  outer loop
    vertex 0.127633 -0.6 -0.0222222
    vertex 0.0772558 -0.6 -0.0666667
    vertex 0.0772558 -0.2 -0.0666667
  endloop
endfacet
facet normal 0.661572 0 -0.749881
  outer loop
    vertex 0.127633 -0.6 -0.0222222
    vertex 0.0772558 -0.2 -0.0666667
    vertex 0.127633 -0.2 -0.0222222
  endloop
endfacet
facet normal 0.661572 0 -0.749881
  outer loop
    vertex 0.127633 -0.2 -0.0222222
    vertex 0.0772558 -0.2 -0.0666667
    vertex 0.0772558 0.2 -0.0666667
  endloop
endfacet
facet normal 0.661572 0 -0.749881
  outer loop
    vertex 0.127633 -0.2 -0.0222222
    vertex 0.0772558 0.2 -0.0666667
    vertex 0.127633 0.2 -0.0222222
  endloop
endfacet
facet normal 0.661572 0 -0.749881
  outer loop
    vertex 0.127633 0.2 -0.0222222
    vertex 0.0772558 0.2 -0.0666667
    vertex 0.0772558 0.6 -0.0666667
  endloop
endfacet
facet normal 0.661572 0 -0.749881
  outer loop
    vertex 0.127633 0.2 -0.0222222
    vertex 0.0772558 0.6 -0.0666667
    vertex 0.127633 0.6 -0.0222222
  endloop
endfacet
facet normal 0.661572 0 -0.749881
  outer loop
    vertex 0.127633 0.6 -0.0222222
    vertex 0.0772558 0.6 -0.0666667
    vertex 0.0772558 1 -0.0666667
  endloop
endfacet
facet normal 0.661572 0 -0.749881
  outer loop
    vertex 0.127633 0.6 -0.0222222
    vertex 0.0772558 1 -0.0666667
    vertex 0.127633 1 -0.0222222
  endloop
endfacet
facet normal 1 0 8.09483e-06
  outer loop
    vertex 0.228386 -1 0.2
    vertex 0.228386 -1 0.133333
    vertex 0.228386 -0.6 0.133333
  endloop
endfacet
facet normal 1 0 8.09483e-06
  outer loop
    vertex 0.228386 -1 0.2
    vertex 0.228386 -0.6 0.133333
    vertex 0.228386 -0.6 0.2
  endloop
endfacet
facet normal 1 0 8.09483e-06
  outer loop
    vertex 0.228386 -0.6 0.2
    vertex 0.228386 -0.6 0.133333
    vertex 0.228386 -0.2 0.133333
  endloop
endfacet
facet normal 1 0 8.09483e-06
  outer loop
    vertex 0.228386 -0.6 0.2
    vertex 0.228386 -0.2 0.133333
    vertex 0.228386 -0.2 0.2
  endloop
endfacet
facet normal 1 0 8.09483e-06
  outer loop
    vertex 0.228386 -0.2 0.2
    vertex 0.228386 -0.2 0.133333
    vertex 0.228386 0.2 0.133333
  endloop
endfacet
facet normal 1 0 8.09483e-06
  outer loop
    vertex 0.228386 -0.2 0.2
    vertex 0.228386 0.2 0.133333
    vertex 0.228386 0.2 0.2
  endloop
endfacet
facet normal 1 0 8.09483e-06
  outer loop
    vertex 0.228386 0.2 0.2
    vertex 0.228386 0.2 0.133333
    vertex 0.228386 0.6 0.133333
  endloop
endfacet
facet normal 1 0 8.09483e-06
  outer loop
    vertex 0.228386 0.2 0.2
    vertex 0.228386 0.6 0.133333
    vertex 0.228386 0.6 0.2
  endloop
endfacet
facet normal 1 0 8.09483e-06
  outer loop
    vertex 0.228386 0.6 0.2
    vertex 0.228386 0.6 0.133333
    vertex 0.228386 1 0.133333
  endloop
endfacet
facet normal 1 0 8.09483e-06
  outer loop
    vertex 0.228386 0.6 0.2
    vertex 0.228386 1 0.133333
    vertex 0.228386 1 0.2
  endloop
endfacet
facet normal 1 0 8.09483e-06
  outer loop
    vertex 0.228386 -1 0.133333
    vertex 0.228387 -1 0.0666667
    vertex 0.228387 -0.6 0.0666667
  endloop
endfacet
facet normal 1 0 8.09483e-06
  outer loop
    vertex 0.228386 -1 0.133333
    vertex 0.228387 -0.6 0.0666667
    vertex 0.228386 -0.6 0.133333
  endloop
endfacet
facet normal 1 0 8.09483e-06
  outer loop
    vertex 0.228386 -0.6 0.133333
    vertex 0.228387 -0.6 0.0666667
    vertex 0.228387 -0.2 0.0666667
  endloop
endfacet
facet normal 1 0 8.09483e-06
  outer loop
    vertex 0.228386 -0.6 0.133333
    vertex 0.228387 -0.2 0.0666667
    vertex 0.228386 -0.2 0.133333
  endloop
endfacet
facet normal 1 0 8.09483e-06
  outer loop
    vertex 0.228386 -0.2 0.133333
    vertex 0.228387 -0.2 0.0666667
    vertex 0.228387 0.2 0.0666667
  endloop
endfacet
facet normal 1 0 8.09483e-06
  outer loop
    vertex 0.228386 -0.2 0.133333
    vertex 0.228387 0.2 0.0666667
    vertex 0.228386 0.2 0.133333
  endloop
endfacet
facet normal 1 0 8.09483e-06
  outer loop
    vertex 0.228386 0.2 0.133333
    vertex 0.228387 0.2 0.0666667
    vertex 0.228387 0.6 0.0666667
  endloop
endfacet
facet normal 1 0 8.09483e-06
  outer loop
    vertex 0.228386 0.2 0.133333
    vertex 0.228387 0.6 0.0666667
    vertex 0.228386 0.6 0.133333
  endloop
endfacet
facet normal 1 0 8.09483e-06
  outer loop
    vertex 0.228386 0.6 0.133333
    vertex 0.228387 0.6 0.0666667
    vertex 0.228387 1 0.0666667
  endloop
endfacet
facet normal 1 0 8.09483e-06
  outer loop
    vertex 0.228386 0.6 0.133333
    vertex 0.228387 1 0.0666667
    vertex 0.228386 1 0.133333
  endloop
endfacet
facet normal 0.661569 0 0.749885
  outer loop
    vertex 0.0772532 -1 0.333333
    vertex 0.127631 -1 0.288889
    vertex 0.127631 -0.6 0.288889
  endloop
endfacet
facet normal 0.661569 0 0.749885
  outer loop
    vertex 0.0772532 -1 0.333333
    vertex 0.127631 -0.6 0.288889
    vertex 0.0772532 -0.6 0.333333
  endloop
endfacet
facet normal 0.661569 0 0.749885
  outer loop
    vertex 0.0772532 -0.6 0.333333
    vertex 0.127631 -0.6 0.288889
    vertex 0.127631 -0.2 0.288889
  endloop
endfacet
facet normal 0.661569 0 0.749885
  outer loop
    vertex 0.0772532 -0.6 0.333333
    vertex 0.127631 -0.2 0.288889
    vertex 0.0772532 -0.2 0.333333
  endloop
endfacet
facet normal 0.661569 0 0.749885
  outer loop
    vertex 0.0772532 -0.2 0.333333
    vertex 0.127631 -0.2 0.288889
    vertex 0.127631 0.2 0.288889
  endloop
endfacet
facet normal 0.661569 0 0.749885
  outer loop
    vertex 0.0772532 -0.2 0.333333
    vertex 0.127631 0.2 0.288889
    vertex 0.0772532 0.2 0.333333
  endloop
endfacet
facet normal 0.661569 0 0.749885
  outer loop
    vertex 0.0772532 0.2 0.333333
    vertex 0.127631 0.2 0.288889
    vertex 0.127631 0.6 0.288889
  endloop
endfacet
facet normal 0.661569 0 0.749885
  outer loop
    vertex 0.0772532 0.2 0.333333
    vertex 0.127631 0.6 0.288889
    vertex 0.0772532 0.6 0.333333
  endloop
endfacet
facet normal 0.661569 0 0.749885
  outer loop
    vertex 0.0772532 0.6 0.333333
    vertex 0.127631 0.6 0.288889
    vertex 0.127631 1 0.288889
  endloop
endfacet
facet normal 0.661569 0 0.749885
  outer loop
    vertex 0.0772532 0.6 0.333333
    vertex 0.127631 1 0.288889
    vertex 0.0772532 1 0.333333
  endloop
endfacet
facet normal 0.661569 0 0.749885
  outer loop
    vertex 0.127631 -1 0.288889
    vertex 0.178008 -1 0.244444
    vertex 0.178008 -0.6 0.244444
  endloop
endfacet
facet normal 0.661569 0 0.749885
  outer loop
    vertex 0.127631 -1 0.288889
    vertex 0.178008 -0.6 0.244444
    vertex 0.127631 -0.6 0.288889
  endloop
endfacet
facet normal 0.661569 0 0.749885
  outer loop
    vertex 0.127631 -0.6 0.288889
    vertex 0.178008 -0.6 0.244444
    vertex 0.178008 -0.2 0.244444
  endloop
endfacet
facet normal 0.661569 0 0.749885
  outer loop
    vertex 0.127631 -0.6 0.288889
    vertex 0.178008 -0.2 0.244444
    vertex 0.127631 -0.2 0.288889
  endloop
endfacet
facet normal 0.661569 0 0.749885
  outer loop
    vertex 0.127631 -0.2 0.288889
    vertex 0.178008 -0.2 0.244444
    vertex 0.178008 0.2 0.244444
  endloop
endfacet
facet normal 0.661569 0 0.749885
  outer loop
    vertex 0.127631 -0.2 0.288889
    vertex 0.178008 0.2 0.244444
    vertex 0.127631 0.2 0.288889
  endloop
endfacet
facet normal 0.661569 0 0.749885
  outer loop
    vertex 0.127631 0.2 0.288889
    vertex 0.178008 0.2 0.244444
    vertex 0.178008 0.6 0.244444
  endloop
endfacet
facet normal 0.661569 0 0.749885
  outer loop
    vertex 0.127631 0.2 0.288889
    vertex 0.178008 0.6 0.244444
    vertex 0.127631 0.6 0.288889
  endloop
endfacet
facet normal 0.661569 0 0.749885
  outer loop
    vertex 0.127631 0.6 0.288889
    vertex 0.178008 0.6 0.244444
    vertex 0.178008 1 0.244444
  endloop
endfacet
facet normal 0.661569 0 0.749885
  outer loop
    vertex 0.127631 0.6 0.288889
    vertex 0.178008 1 0.244444
    vertex 0.127631 1 0.288889
  endloop
endfacet
facet normal 0.661569 0 0.749885
  outer loop
    vertex 0.178008 -1 0.244444
    vertex 0.228386 -1 0.2
    vertex 0.228386 -0.6 0.2
  endloop
endfacet
facet normal 0.661569 0 0.749885
  outer loop
    vertex 0.178008 -1 0.244444
    vertex 0.228386 -0.6 0.2
    vertex 0.178008 -0.6 0.244444
  endloop
endfacet
facet normal 0.661569 0 0.749885
  outer loop
    vertex 0.178008 -0.6 0.244444
    vertex 0.228386 -0.6 0.2
    vertex 0.228386 -0.2 0.2
  endloop
endfacet
facet normal 0.661569 0 0.749885
  outer loop
    vertex 0.178008 -0.6 0.244444
    vertex 0.228386 -0.2 0.2
    vertex 0.178008 -0.2 0.244444
  endloop
endfacet
facet normal 0.661569 0 0.749885
  outer loop
    vertex 0.178008 -0.2 0.244444
    vertex 0.228386 -0.2 0.2
    vertex 0.228386 0.2 0.2
  endloop
endfacet
facet normal 0.661569 0 0.749885
  outer loop
    vertex 0.178008 -0.2 0.244444
    vertex 0.228386 0.2 0.2
    vertex 0.178008 0.2 0.244444
  endloop
endfacet
facet normal 0.661569 0 0.749885
  outer loop
    vertex 0.178008 0.2 0.244444
    vertex 0.228386 0.2 0.2
    vertex 0.228386 0.6 0.2
  endloop
endfacet
facet normal 0.661569 0 0.749885
  outer loop
    vertex 0.178008 0.2 0.244444
    vertex 0.228386 0.6 0.2
    vertex 0.178008 0.6 0.244444
  endloop
endfacet
facet normal 0.661569 0 0.749885
  outer loop
    vertex 0.178008 0.6 0.244444
    vertex 0.228386 0.6 0.2
    vertex 0.228386 1 0.2
  endloop
endfacet
facet normal 0.661569 0 0.749885
  outer loop
    vertex 0.178008 0.6 0.244444
    vertex 0.228386 1 0.2
    vertex 0.178008 1 0.244444
  endloop
endfacet
facet normal 0.550398 0 0.834902
  outer loop
    vertex -0.125001 -1 0.466667
    vertex -0.0575828 -1 0.422222
    vertex -0.0575828 -0.6 0.422222
  endloop
endfacet
facet normal 0.550398 0 0.834902
  outer loop
    vertex -0.125001 -1 0.466667
    vertex -0.0575828 -0.6 0.422222
    vertex -0.125001 -0.6 0.466667
  endloop
endfacet
facet normal 0.550398 0 0.834902
  outer loop
    vertex -0.125001 -0.6 0.466667
    vertex -0.0575828 -0.6 0.422222
    vertex -0.0575828 -0.2 0.422222
  endloop
endfacet
facet normal 0.550398 0 0.834902
  outer loop
    vertex -0.125001 -0.6 0.466667
    vertex -0.0575828 -0.2 0.422222
    vertex -0.125001 -0.2 0.466667
  endloop
endfacet
facet normal 0.550398 0 0.834902
  outer loop
    vertex -0.125001 -0.2 0.466667
    vertex -0.0575828 -0.2 0.422222
    vertex -0.0575828 0.2 0.422222
  endloop
endfacet
facet normal 0.550398 0 0.834902
  outer loop
    vertex -0.125001 -0.2 0.466667
    vertex -0.0575828 0.2 0.422222
    vertex -0.125001 0.2 0.466667
  endloop
endfacet
facet normal 0.550398 0 0.834902
  outer loop
    vertex -0.125001 0.2 0.466667
    vertex -0.0575828 0.2 0.422222
    vertex -0.0575828 0.6 0.422222
  endloop
endfacet
facet normal 0.550398 0 0.834902
  outer loop
    vertex -0.125001 0.2 0.466667
    vertex -0.0575828 0.6 0.422222
    vertex -0.125001 0.6 0.466667
  endloop
endfacet
facet normal 0.550398 0 0.834902
  outer loop
    vertex -0.125001 0.6 0.466667
    vertex -0.0575828 0.6 0.422222
    vertex -0.0575828 1 0.422222
  endloop
endfacet
facet normal 0.550398 0 0.834902
  outer loop
    vertex -0.125001 0.6 0.466667
    vertex -0.0575828 1 0.422222
    vertex -0.125001 1 0.466667
  endloop
endfacet
facet normal 0.550398 0 0.834902
  outer loop
    vertex -0.0575828 -1 0.422222
    vertex 0.00983524 -1 0.377778
    vertex 0.00983524 -0.6 0.377778
  endloop
endfacet
facet normal 0.550398 0 0.834902
  outer loop
    vertex -0.0575828 -1 0.422222
    vertex 0.00983524 -0.6 0.377778
    vertex -0.0575828 -0.6 0.422222
  endloop
endfacet
facet normal 0.550398 0 0.834902
  outer loop
    vertex -0.0575828 -0.6 0.422222
    vertex 0.00983524 -0.6 0.377778
    vertex 0.00983524 -0.2 0.377778
  endloop
endfacet
facet normal 0.550398 0 0.834902
  outer loop
    vertex -0.0575828 -0.6 0.422222
    vertex 0.00983524 -0.2 0.377778
    vertex -0.0575828 -0.2 0.422222
  endloop
endfacet
facet normal 0.550398 0 0.834902
  outer loop
    vertex -0.0575828 -0.2 0.422222
    vertex 0.00983524 -0.2 0.377778
    vertex 0.00983524 0.2 0.377778
  endloop
endfacet
facet normal 0.550398 0 0.834902
  outer loop
    vertex -0.0575828 -0.2 0.422222
    vertex 0.00983524 0.2 0.377778
    vertex -0.0575828 0.2 0.422222
  endloop
endfacet
facet normal 0.550398 0 0.834902
  outer loop
    vertex -0.0575828 0.2 0.422222
    vertex 0.00983524 0.2 0.377778
    vertex 0.00983524 0.6 0.377778
  endloop
endfacet
facet normal 0.550398 0 0.834902
  outer loop
    vertex -0.0575828 0.2 0.422222
    vertex 0.00983524 0.6 0.377778
    vertex -0.0575828 0.6 0.422222
  endloop
endfacet
facet normal 0.550398 0 0.834902
  outer loop
    vertex -0.0575828 0.6 0.422222
    vertex 0.00983524 0.6 0.377778
    vertex 0.00983524 1 0.377778
  endloop
endfacet
facet normal 0.550398 0 0.834902
  outer loop
    vertex -0.0575828 0.6 0.422222
    vertex 0.00983524 1 0.377778
    vertex -0.0575828 1 0.422222
  endloop
endfacet
facet normal 0.550398 0 0.834902
  outer loop
    vertex 0.00983524 -1 0.377778
    vertex 0.0772532 -1 0.333333
    vertex 0.0772532 -0.6 0.333333
  endloop
endfacet
facet normal 0.550398 0 0.834902
  outer loop
    vertex 0.00983524 -1 0.377778
    vertex 0.0772532 -0.6 0.333333
    vertex 0.00983524 -0.6 0.377778
  endloop
endfacet
facet normal 0.550398 0 0.834902
  outer loop
    vertex 0.00983524 -0.6 0.377778
    vertex 0.0772532 -0.6 0.333333
    vertex 0.0772532 -0.2 0.333333
  endloop
endfacet
facet normal 0.550398 0 0.834902
  outer loop
    vertex 0.00983524 -0.6 0.377778
    vertex 0.0772532 -0.2 0.333333
    vertex 0.00983524 -0.2 0.377778
  endloop
endfacet
facet normal 0.550398 0 0.834902
  outer loop
    vertex 0.00983524 -0.2 0.377778
    vertex 0.0772532 -0.2 0.333333
    vertex 0.0772532 0.2 0.333333
  endloop
endfacet
facet normal 0.550398 0 0.834902
  outer loop
    vertex 0.00983524 -0.2 0.377778
    vertex 0.0772532 0.2 0.333333
    vertex 0.00983524 0.2 0.377778
  endloop
endfacet
facet normal 0.550398 0 0.834902
  outer loop
    vertex 0.00983524 0.2 0.377778
    vertex 0.0772532 0.2 0.333333
    vertex 0.0772532 0.6 0.333333
  endloop
endfacet
facet normal 0.550398 0 0.834902
  outer loop
    vertex 0.00983524 0.2 0.377778
    vertex 0.0772532 0.6 0.333333
    vertex 0.00983524 0.6 0.377778
  endloop
endfacet
facet normal 0.550398 0 0.834902
  outer loop
    vertex 0.00983524 0.6 0.377778
    vertex 0.0772532 0.6 0.333333
    vertex 0.0772532 1 0.333333
  endloop
endfacet
facet normal 0.550398 0 0.834902
  outer loop
    vertex 0.00983524 0.6 0.377778
    vertex 0.0772532 1 0.333333
    vertex 0.00983524 1 0.377778
  endloop
endfacet
facet normal 0.74458 0 0.667533
  outer loop
    vertex -0.244537 -1 0.6
    vertex -0.184769 -1 0.533333
    vertex -0.184769 -0.6 0.533333
  endloop
endfacet
facet normal 0.74458 0 0.667533
  outer loop
    vertex -0.244537 -1 0.6
    vertex -0.184769 -0.6 0.533333
    vertex -0.244537 -0.6 0.6
  endloop
endfacet
facet normal 0.74458 0 0.667533
  outer loop
    vertex -0.244537 -0.6 0.6
    vertex -0.184769 -0.6 0.533333
    vertex -0.184769 -0.2 0.533333
  endloop
endfacet
facet normal 0.74458 0 0.667533
  outer loop
    vertex -0.244537 -0.6 0.6
    vertex -0.184769 -0.2 0.533333
    vertex -0.244537 -0.2 0.6
  endloop
endfacet
facet normal 0.74458 0 0.667533
  outer loop
    vertex -0.244537 -0.2 0.6
    vertex -0.184769 -0.2 0.533333
    vertex -0.184769 0.2 0.533333
  endloop
endfacet
facet normal 0.74458 0 0.667533
  outer loop
    vertex -0.244537 -0.2 0.6
    vertex -0.184769 0.2 0.533333
    vertex -0.244537 0.2 0.6
  endloop
endfacet
facet normal 0.74458 0 0.667533
  outer loop
    vertex -0.244537 0.2 0.6
    vertex -0.184769 0.2 0.533333
    vertex -0.184769 0.6 0.533333
  endloop
endfacet
facet normal 0.74458 0 0.667533
  outer loop
    vertex -0.244537 0.2 0.6
    vertex -0.184769 0.6 0.533333
    vertex -0.244537 0.6 0.6
  endloop
endfacet
facet normal 0.74458 0 0.667533
  outer loop
    vertex -0.244537 0.6 0.6
    vertex -0.184769 0.6 0.533333
    vertex -0.184769 1 0.533333
  endloop
endfacet
facet normal 0.74458 0 0.667533
  outer loop
    vertex -0.244537 0.6 0.6
    vertex -0.184769 1 0.533333
    vertex -0.244537 1 0.6
  endloop
endfacet
facet normal 0.74458 0 0.667533
  outer loop
    vertex -0.184769 -1 0.533333
    vertex -0.125001 -1 0.466667
    vertex -0.125001 -0.6 0.466667
  endloop
endfacet
facet normal 0.74458 0 0.667533
  outer loop
    vertex -0.184769 -1 0.533333
    vertex -0.125001 -0.6 0.466667
    vertex -0.184769 -0.6 0.533333
  endloop
endfacet
facet normal 0.74458 0 0.667533
  outer loop
    vertex -0.184769 -0.6 0.533333
    vertex -0.125001 -0.6 0.466667
    vertex -0.125001 -0.2 0.466667
  endloop
endfacet
facet normal 0.74458 0 0.667533
  outer loop
    vertex -0.184769 -0.6 0.533333
    vertex -0.125001 -0.2 0.466667
    vertex -0.184769 -0.2 0.533333
  endloop
endfacet
facet normal 0.74458 0 0.667533
  outer loop
    vertex -0.184769 -0.2 0.533333
    vertex -0.125001 -0.2 0.466667
    vertex -0.125001 0.2 0.466667
  endloop
endfacet
facet normal 0.74458 0 0.667533
  outer loop
    vertex -0.184769 -0.2 0.533333
    vertex -0.125001 0.2 0.466667
    vertex -0.184769 0.2 0.533333
  endloop
endfacet
facet normal 0.74458 0 0.667533
  outer loop
    vertex -0.184769 0.2 0.533333
    vertex -0.125001 0.2 0.466667
    vertex -0.125001 0.6 0.466667
  endloop
endfacet
facet normal 0.74458 0 0.667533
  outer loop
    vertex -0.184769 0.2 0.533333
    vertex -0.125001 0.6 0.466667
    vertex -0.184769 0.6 0.533333
  endloop
endfacet
facet normal 0.74458 0 0.667533
  outer loop
    vertex -0.184769 0.6 0.533333
    vertex -0.125001 0.6 0.466667
    vertex -0.125001 1 0.466667
  endloop
endfacet
facet normal 0.74458 0 0.667533
  outer loop
    vertex -0.184769 0.6 0.533333
    vertex -0.125001 1 0.466667
    vertex -0.184769 1 0.533333
  endloop
endfacet
facet normal 0.953217 0 -0.302287
  outer loop
    vertex -0.202254 -1 0.733333
    vertex -0.223395 -1 0.666667
    vertex -0.223395 -0.6 0.666667
  endloop
endfacet
facet normal 0.953217 0 -0.302287
  outer loop
    vertex -0.202254 -1 0.733333
    vertex -0.223395 -0.6 0.666667
    vertex -0.202254 -0.6 0.733333
  endloop
endfacet
facet normal 0.953217 0 -0.302287
  outer loop
    vertex -0.202254 -0.6 0.733333
    vertex -0.223395 -0.6 0.666667
    vertex -0.223395 -0.2 0.666667
  endloop
endfacet
facet normal 0.953217 0 -0.302287
  outer loop
    vertex -0.202254 -0.6 0.733333
    vertex -0.223395 -0.2 0.666667
    vertex -0.202254 -0.2 0.733333
  endloop
endfacet
facet normal 0.953217 0 -0.302287
  outer loop
    vertex -0.202254 -0.2 0.733333
    vertex -0.223395 -0.2 0.666667
    vertex -0.223395 0.2 0.666667
  endloop
endfacet
facet normal 0.953217 0 -0.302287
  outer loop
    vertex -0.202254 -0.2 0.733333
    vertex -0.223395 0.2 0.666667
    vertex -0.202254 0.2 0.733333
  endloop
endfacet
facet normal 0.953217 0 -0.302287
  outer loop
    vertex -0.202254 0.2 0.733333
    vertex -0.223395 0.2 0.666667
    vertex -0.223395 0.6 0.666667
  endloop
endfacet
facet normal 0.953217 0 -0.302287
  outer loop
    vertex -0.202254 0.2 0.733333
    vertex -0.223395 0.6 0.666667
    vertex -0.202254 0.6 0.733333
  endloop
endfacet
facet normal 0.953217 0 -0.302287
  outer loop
    vertex -0.202254 0.6 0.733333
    vertex -0.223395 0.6 0.666667
    vertex -0.223395 1 0.666667
  endloop
endfacet
facet normal 0.953217 0 -0.302287
  outer loop
    vertex -0.202254 0.6 0.733333
    vertex -0.223395 1 0.666667
    vertex -0.202254 1 0.733333
  endloop
endfacet
facet normal 0.953217 0 -0.302287
  outer loop
    vertex -0.223395 -1 0.666667
    vertex -0.244537 -1 0.6
    vertex -0.244537 -0.6 0.6
  endloop
endfacet
facet normal 0.953217 0 -0.302287
  outer loop
    vertex -0.223395 -1 0.666667
    vertex -0.244537 -0.6 0.6
    vertex -0.223395 -0.6 0.666667
  endloop
endfacet
facet normal 0.953217 0 -0.302287
  outer loop
    vertex -0.223395 -0.6 0.666667
    vertex -0.244537 -0.6 0.6
    vertex -0.244537 -0.2 0.6
  endloop
endfacet
facet normal 0.953217 0 -0.302287
  outer loop
    vertex -0.223395 -0.6 0.666667
    vertex -0.244537 -0.2 0.6
    vertex -0.223395 -0.2 0.666667
  endloop
endfacet
facet normal 0.953217 0 -0.302287
  outer loop
    vertex -0.223395 -0.2 0.666667
    vertex -0.244537 -0.2 0.6
    vertex -0.244537 0.2 0.6
  endloop
endfacet
facet normal 0.953217 0 -0.302287
  outer loop
    vertex -0.223395 -0.2 0.666667
    vertex -0.244537 0.2 0.6
    vertex -0.223395 0.2 0.666667
  endloop
endfacet
facet normal 0.953217 0 -0.302287
  outer loop
    vertex -0.223395 0.2 0.666667
    vertex -0.244537 0.2 0.6
    vertex -0.244537 0.6 0.6
  endloop
endfacet
facet normal 0.953217 0 -0.302287
  outer loop
    vertex -0.223395 0.2 0.666667
    vertex -0.244537 0.6 0.6
    vertex -0.223395 0.6 0.666667
  endloop
endfacet
facet normal 0.953217 0 -0.302287
  outer loop
    vertex -0.223395 0.6 0.666667
    vertex -0.244537 0.6 0.6
    vertex -0.244537 1 0.6
  endloop
endfacet
facet normal 0.953217 0 -0.302287
  outer loop
    vertex -0.223395 0.6 0.666667
    vertex -0.244537 1 0.6
    vertex -0.223395 1 0.666667
  endloop
endfacet
facet normal 0.603591 0 -0.797294
  outer loop
    vertex -0.0261318 -1 0.866667
    vertex -0.0848392 -1 0.822222
    vertex -0.0848392 -0.6 0.822222
  endloop
endfacet
facet normal 0.603591 0 -0.797294
  outer loop
    vertex -0.0261318 -1 0.866667
    vertex -0.0848392 -0.6 0.822222
    vertex -0.0261318 -0.6 0.866667
  endloop
endfacet
facet normal 0.603591 0 -0.797294
  outer loop
    vertex -0.0261318 -0.6 0.866667
    vertex -0.0848392 -0.6 0.822222
    vertex -0.0848392 -0.2 0.822222
  endloop
endfacet
facet normal 0.603591 0 -0.797294
  outer loop
    vertex -0.0261318 -0.6 0.866667
    vertex -0.0848392 -0.2 0.822222
    vertex -0.0261318 -0.2 0.866667
  endloop
endfacet
facet normal 0.603591 0 -0.797294
  outer loop
    vertex -0.0261318 -0.2 0.866667
    vertex -0.0848392 -0.2 0.822222
    vertex -0.0848392 0.2 0.822222
  endloop
endfacet
facet normal 0.603591 0 -0.797294
  outer loop
    vertex -0.0261318 -0.2 0.866667
    vertex -0.0848392 0.2 0.822222
    vertex -0.0261318 0.2 0.866667
  endloop
endfacet
facet normal 0.603591 0 -0.797294
  outer loop
    vertex -0.0261318 0.2 0.866667
    vertex -0.0848392 0.2 0.822222
    vertex -0.0848392 0.6 0.822222
  endloop
endfacet
facet normal 0.603591 0 -0.797294
  outer loop
    vertex -0.0261318 0.2 0.866667
    vertex -0.0848392 0.6 0.822222
    vertex -0.0261318 0.6 0.866667
  endloop
endfacet
facet normal 0.603591 0 -0.797294
  outer loop
    vertex -0.0261318 0.6 0.866667
    vertex -0.0848392 0.6 0.822222
    vertex -0.0848392 1 0.822222
  endloop
endfacet
facet normal 0.603591 0 -0.797294
  outer loop
    vertex -0.0261318 0.6 0.866667
    vertex -0.0848392 1 0.822222
    vertex -0.0261318 1 0.866667
  endloop
endfacet
facet normal 0.603591 0 -0.797294
  outer loop
    vertex -0.0848392 -1 0.822222
    vertex -0.143547 -1 0.777778
    vertex -0.143547 -0.6 0.777778
  endloop
endfacet
facet normal 0.603591 0 -0.797294
  outer loop
    vertex -0.0848392 -1 0.822222
    vertex -0.143547 -0.6 0.777778
    vertex -0.0848392 -0.6 0.822222
  endloop
endfacet
facet normal 0.603591 0 -0.797294
  outer loop
    vertex -0.0848392 -0.6 0.822222
    vertex -0.143547 -0.6 0.777778
    vertex -0.143547 -0.2 0.777778
  endloop
endfacet
facet normal 0.603591 0 -0.797294
  outer loop
    vertex -0.0848392 -0.6 0.822222
    vertex -0.143547 -0.2 0.777778
    vertex -0.0848392 -0.2 0.822222
  endloop
endfacet
facet normal 0.603591 0 -0.797294
  outer loop
    vertex -0.0848392 -0.2 0.822222
    vertex -0.143547 -0.2 0.777778
    vertex -0.143547 0.2 0.777778
  endloop
endfacet
facet normal 0.603591 0 -0.797294
  outer loop
    vertex -0.0848392 -0.2 0.822222
    vertex -0.143547 0.2 0.777778
    vertex -0.0848392 0.2 0.822222
  endloop
endfacet
facet normal 0.603591 0 -0.797294
  outer loop
    vertex -0.0848392 0.2 0.822222
    vertex -0.143547 0.2 0.777778
    vertex -0.143547 0.6 0.777778
  endloop
endfacet
facet normal 0.603591 0 -0.797294
  outer loop
    vertex -0.0848392 0.2 0.822222
    vertex -0.143547 0.6 0.777778
    vertex -0.0848392 0.6 0.822222
  endloop
endfacet
facet normal 0.603591 0 -0.797294
  outer loop
    vertex -0.0848392 0.6 0.822222
    vertex -0.143547 0.6 0.777778
    vertex -0.143547 1 0.777778
  endloop
endfacet
facet normal 0.603591 0 -0.797294
  outer loop
    vertex -0.0848392 0.6 0.822222
    vertex -0.143547 1 0.777778
    vertex -0.0848392 1 0.822222
  endloop
endfacet
facet normal 0.603591 0 -0.797294
  outer loop
    vertex -0.143547 -1 0.777778
    vertex -0.202254 -1 0.733333
    vertex -0.202254 -0.6 0.733333
  endloop
endfacet
facet normal 0.603591 0 -0.797294
  outer loop
    vertex -0.143547 -1 0.777778
    vertex -0.202254 -0.6 0.733333
    vertex -0.143547 -0.6 0.777778
  endloop
endfacet
facet normal 0.603591 0 -0.797294
  outer loop
    vertex -0.143547 -0.6 0.777778
    vertex -0.202254 -0.6 0.733333
    vertex -0.202254 -0.2 0.733333
  endloop
endfacet
facet normal 0.603591 0 -0.797294
  outer loop
    vertex -0.143547 -0.6 0.777778
    vertex -0.202254 -0.2 0.733333
    vertex -0.143547 -0.2 0.777778
  endloop
endfacet
facet normal 0.603591 0 -0.797294
  outer loop
    vertex -0.143547 -0.2 0.777778
    vertex -0.202254 -0.2 0.733333
    vertex -0.202254 0.2 0.733333
  endloop
endfacet
facet normal 0.603591 0 -0.797294
  outer loop
    vertex -0.143547 -0.2 0.777778
    vertex -0.202254 0.2 0.733333
    vertex -0.143547 0.2 0.777778
  endloop
endfacet
facet normal 0.603591 0 -0.797294
  outer loop
    vertex -0.143547 0.2 0.777778
    vertex -0.202254 0.2 0.733333
    vertex -0.202254 0.6 0.733333
  endloop
endfacet
facet normal 0.603591 0 -0.797294
  outer loop
    vertex -0.143547 0.2 0.777778
    vertex -0.202254 0.6 0.733333
    vertex -0.143547 0.6 0.777778
  endloop
endfacet
facet normal 0.603591 0 -0.797294
  outer loop
    vertex -0.143547 0.6 0.777778
    vertex -0.202254 0.6 0.733333
    vertex -0.202254 1 0.733333
  endloop
endfacet
facet normal 0.603591 0 -0.797294
  outer loop
    vertex -0.143547 0.6 0.777778
    vertex -0.202254 1 0.733333
    vertex -0.143547 1 0.777778
  endloop
endfacet
facet normal 0.567571 0 -0.823324
  outer loop
    vertex 0.167283 -1 1
    vertex 0.102811 -1 0.955556
    vertex 0.102811 -0.6 0.955556
  endloop
endfacet
facet normal 0.567571 0 -0.823324
  outer loop
    vertex 0.167283 -1 1
    vertex 0.102811 -0.6 0.955556
    vertex 0.167283 -0.6 1
  endloop
endfacet
facet normal 0.567571 0 -0.823324
  outer loop
    vertex 0.167283 -0.6 1
    vertex 0.102811 -0.6 0.955556
    vertex 0.102811 -0.2 0.955556
  endloop
endfacet
facet normal 0.567571 0 -0.823324
  outer loop
    vertex 0.167283 -0.6 1
    vertex 0.102811 -0.2 0.955556
    vertex 0.167283 -0.2 1
  endloop
endfacet
facet normal 0.567571 0 -0.823324
  outer loop
    vertex 0.167283 -0.2 1
    vertex 0.102811 -0.2 0.955556
    vertex 0.102811 0.2 0.955556
  endloop
endfacet
facet normal 0.567571 0 -0.823324
  outer loop
    vertex 0.167283 -0.2 1
    vertex 0.102811 0.2 0.955556
    vertex 0.167283 0.2 1
  endloop
endfacet
facet normal 0.567571 0 -0.823324
  outer loop
    vertex 0.167283 0.2 1
    vertex 0.102811 0.2 0.955556
    vertex 0.102811 0.6 0.955556
  endloop
endfacet
facet normal 0.567571 0 -0.823324
  outer loop
    vertex 0.167283 0.2 1
    vertex 0.102811 0.6 0.955556
    vertex 0.167283 0.6 1
  endloop
endfacet
facet normal 0.567571 0 -0.823324
  outer loop
    vertex 0.167283 0.6 1
    vertex 0.102811 0.6 0.955556
    vertex 0.102811 1 0.955556
  endloop
endfacet
facet normal 0.567571 0 -0.823324
  outer loop
    vertex 0.167283 0.6 1
    vertex 0.102811 1 0.955556
    vertex 0.167283 1 1
  endloop
endfacet
facet normal 0.567571 0 -0.823324
  outer loop
    vertex 0.102811 -1 0.955556
    vertex 0.0383398 -1 0.911111
    vertex 0.0383398 -0.6 0.911111
  endloop
endfacet
facet normal 0.567571 0 -0.823324
  outer loop
    vertex 0.102811 -1 0.955556
    vertex 0.0383398 -0.6 0.911111
    vertex 0.102811 -0.6 0.955556
  endloop
endfacet
facet normal 0.567571 0 -0.823324
  outer loop
    vertex 0.102811 -0.6 0.955556
    vertex 0.0383398 -0.6 0.911111
    vertex 0.0383398 -0.2 0.911111
  endloop
endfacet
facet normal 0.567571 0 -0.823324
  outer loop
    vertex 0.102811 -0.6 0.955556
    vertex 0.0383398 -0.2 0.911111
    vertex 0.102811 -0.2 0.955556
  endloop
endfacet
facet normal 0.567571 0 -0.823324
  outer loop
    vertex 0.102811 -0.2 0.955556
    vertex 0.0383398 -0.2 0.911111
    vertex 0.0383398 0.2 0.911111
  endloop
endfacet
facet normal 0.567571 0 -0.823324
  outer loop
    vertex 0.102811 -0.2 0.955556
    vertex 0.0383398 0.2 0.911111
    vertex 0.102811 0.2 0.955556
  endloop
endfacet
facet normal 0.567571 0 -0.823324
  outer loop
    vertex 0.102811 0.2 0.955556
    vertex 0.0383398 0.2 0.911111
    vertex 0.0383398 0.6 0.911111
  endloop
endfacet
facet normal 0.567571 0 -0.823324
  outer loop
    vertex 0.102811 0.2 0.955556
    vertex 0.0383398 0.6 0.911111
    vertex 0.102811 0.6 0.955556
  endloop
endfacet
facet normal 0.567571 0 -0.823324
  outer loop
    vertex 0.102811 0.6 0.955556
    vertex 0.0383398 0.6 0.911111
    vertex 0.0383398 1 0.911111
  endloop
endfacet
facet normal 0.567571 0 -0.823324
  outer loop
    vertex 0.102811 0.6 0.955556
    vertex 0.0383398 1 0.911111
    vertex 0.102811 1 0.955556
  endloop
endfacet
facet normal 0.567571 0 -0.823324
  outer loop
    vertex 0.0383398 -1 0.911111
    vertex -0.0261318 -1 0.866667
    vertex -0.0261318 -0.6 0.866667
  endloop
endfacet
facet normal 0.567571 0 -0.823324
  outer loop
    vertex 0.0383398 -1 0.911111
    vertex -0.0261318 -0.6 0.866667
    vertex 0.0383398 -0.6 0.911111
  endloop
endfacet
facet normal 0.567571 0 -0.823324
  outer loop
    vertex 0.0383398 -0.6 0.911111
    vertex -0.0261318 -0.6 0.866667
    vertex -0.0261318 -0.2 0.866667
  endloop
endfacet
facet normal 0.567571 0 -0.823324
  outer loop
    vertex 0.0383398 -0.6 0.911111
    vertex -0.0261318 -0.2 0.866667
    vertex 0.0383398 -0.2 0.911111
  endloop
endfacet
facet normal 0.567571 0 -0.823324
  outer loop
    vertex 0.0383398 -0.2 0.911111
    vertex -0.0261318 -0.2 0.866667
    vertex -0.0261318 0.2 0.866667
  endloop
endfacet
facet normal 0.567571 0 -0.823324
  outer loop
    vertex 0.0383398 -0.2 0.911111
    vertex -0.0261318 0.2 0.866667
    vertex 0.0383398 0.2 0.911111
  endloop
endfacet
facet normal 0.567571 0 -0.823324
  outer loop
    vertex 0.0383398 0.2 0.911111
    vertex -0.0261318 0.2 0.866667
    vertex -0.0261318 0.6 0.866667
  endloop
endfacet
facet normal 0.567571 0 -0.823324
  outer loop
    vertex 0.0383398 0.2 0.911111
    vertex -0.0261318 0.6 0.866667
    vertex 0.0383398 0.6 0.911111
  endloop
endfacet
facet normal 0.567571 0 -0.823324
  outer loop
    vertex 0.0383398 0.6 0.911111
    vertex -0.0261318 0.6 0.866667
    vertex -0.0261318 1 0.866667
  endloop
endfacet
facet normal 0.567571 0 -0.823324
  outer loop
    vertex 0.0383398 0.6 0.911111
    vertex -0.0261318 1 0.866667
    vertex 0.0383398 1 0.911111
  endloop
endfacet
endsolid Created by Gmsh
